Presentations/May eTPA Data/NewFile6.csv

X,CH3,CH4,Start,Increment,
Sequence,Volt,Volt,9.520000e-03,1.000000e-06
0,6.00e-02,1.20e-01,
1,6.00e-02,1.20e-01,
2,4.00e-02,1.20e-01,
3,4.00e-02,1.20e-01,
4,4.00e-02,1.20e-01,
5,4.00e-02,1.20e-01,
6,2.00e-02,1.20e-01,
7,2.00e-02,1.20e-01,
8,2.00e-02,1.20e-01,
9,2.00e-02,1.20e-01,
10,2.00e-02,1.20e-01,
11,2.00e-02,1.20e-01,
12,0.00e+00,1.20e-01,
13,0.00e+00,1.20e-01,
14,0.00e+00,1.20e-01,
15,0.00e+00,1.20e-01,
16,0.00e+00,1.20e-01,
17,0.00e+00,1.20e-01,
18,2.00e-02,1.20e-01,
19,2.00e-02,1.20e-01,
20,2.00e-02,1.20e-01,
21,2.00e-02,1.20e-01,
22,4.00e-02,1.20e-01,
23,4.00e-02,1.20e-01,
24,4.00e-02,1.20e-01,
25,4.00e-02,1.20e-01,
26,2.00e-02,1.20e-01,
27,2.00e-02,1.20e-01,
28,2.00e-02,1.20e-01,
29,2.00e-02,1.20e-01,
30,4.00e-02,1.20e-01,
31,4.00e-02,1.20e-01,
32,2.00e-02,1.20e-01,
33,2.00e-02,1.20e-01,
34,2.00e-02,1.20e-01,
35,2.00e-02,1.20e-01,
36,4.00e-02,1.20e-01,
37,4.00e-02,1.20e-01,
38,4.00e-02,1.20e-01,
39,4.00e-02,1.20e-01,
40,4.00e-02,1.20e-01,
41,4.00e-02,1.20e-01,
42,6.00e-02,1.20e-01,
43,6.00e-02,1.20e-01,
44,4.00e-02,1.20e-01,
45,4.00e-02,1.20e-01,
46,4.00e-02,1.20e-01,
47,4.00e-02,1.20e-01,
48,2.00e-02,1.20e-01,
49,2.00e-02,1.20e-01,
50,2.00e-02,1.20e-01,
51,2.00e-02,1.20e-01,
52,2.00e-02,1.20e-01,
53,2.00e-02,1.20e-01,
54,2.00e-02,1.20e-01,
55,2.00e-02,1.20e-01,
56,2.00e-02,1.20e-01,
57,2.00e-02,1.20e-01,
58,2.00e-02,1.20e-01,
59,2.00e-02,1.20e-01,
60,2.00e-02,1.20e-01,
61,2.00e-02,1.20e-01,
62,2.00e-02,1.20e-01,
63,2.00e-02,1.20e-01,
64,2.00e-02,1.20e-01,
65,2.00e-02,1.20e-01,
66,2.00e-02,1.20e-01,
67,2.00e-02,1.20e-01,
68,2.00e-02,1.20e-01,
69,2.00e-02,1.20e-01,
70,4.00e-02,1.20e-01,
71,4.00e-02,1.20e-01,
72,4.00e-02,1.20e-01,
73,4.00e-02,1.20e-01,
74,2.00e-02,1.20e-01,
75,2.00e-02,1.20e-01,
76,2.00e-02,1.20e-01,
77,2.00e-02,1.20e-01,
78,2.00e-02,1.20e-01,
79,2.00e-02,1.20e-01,
80,4.00e-02,1.20e-01,
81,4.00e-02,1.20e-01,
82,4.00e-02,1.20e-01,
83,4.00e-02,1.20e-01,
84,4.00e-02,1.20e-01,
85,4.00e-02,1.20e-01,
86,4.00e-02,1.20e-01,
87,4.00e-02,1.20e-01,
88,4.00e-02,1.20e-01,
89,4.00e-02,1.20e-01,
90,6.00e-02,1.20e-01,
91,6.00e-02,1.20e-01,
92,6.00e-02,1.20e-01,
93,6.00e-02,1.20e-01,
94,4.00e-02,1.20e-01,
95,4.00e-02,1.20e-01,
96,4.00e-02,1.20e-01,
97,4.00e-02,1.20e-01,
98,4.00e-02,1.20e-01,
99,4.00e-02,1.20e-01,
100,4.00e-02,1.20e-01,
101,4.00e-02,1.20e-01,
102,4.00e-02,1.20e-01,
103,4.00e-02,1.20e-01,
104,4.00e-02,1.20e-01,
105,4.00e-02,1.20e-01,
106,4.00e-02,1.20e-01,
107,4.00e-02,1.20e-01,
108,4.00e-02,1.20e-01,
109,4.00e-02,1.20e-01,
110,4.00e-02,1.20e-01,
111,4.00e-02,1.20e-01,
112,4.00e-02,1.20e-01,
113,4.00e-02,1.20e-01,
114,4.00e-02,1.20e-01,
115,4.00e-02,1.20e-01,
116,1.00e-01,1.20e-01,
117,1.00e-01,1.20e-01,
118,8.00e-02,1.20e-01,
119,8.00e-02,1.20e-01,
120,6.00e-02,1.20e-01,
121,6.00e-02,1.20e-01,
122,6.00e-02,1.20e-01,
123,6.00e-02,1.20e-01,
124,6.00e-02,1.20e-01,
125,6.00e-02,1.20e-01,
126,6.00e-02,1.20e-01,
127,6.00e-02,1.20e-01,
128,8.00e-02,1.20e-01,
129,8.00e-02,1.20e-01,
130,1.00e-01,1.20e-01,
131,1.00e-01,1.20e-01,
132,1.00e-01,1.20e-01,
133,1.00e-01,1.20e-01,
134,6.00e-02,1.20e-01,
135,6.00e-02,1.20e-01,
136,6.00e-02,1.20e-01,
137,6.00e-02,1.20e-01,
138,6.00e-02,1.60e-01,
139,6.00e-02,1.60e-01,
140,6.00e-02,1.60e-01,
141,6.00e-02,1.60e-01,
142,6.00e-02,1.20e-01,
143,6.00e-02,1.20e-01,
144,8.00e-02,1.20e-01,
145,8.00e-02,1.20e-01,
146,6.00e-02,1.20e-01,
147,6.00e-02,1.20e-01,
148,6.00e-02,1.60e-01,
149,6.00e-02,1.60e-01,
150,4.00e-02,1.20e-01,
151,4.00e-02,1.20e-01,
152,4.00e-02,1.60e-01,
153,4.00e-02,1.60e-01,
154,6.00e-02,1.60e-01,
155,6.00e-02,1.60e-01,
156,6.00e-02,1.20e-01,
157,6.00e-02,1.20e-01,
158,4.00e-02,1.20e-01,
159,4.00e-02,1.20e-01,
160,4.00e-02,1.20e-01,
161,4.00e-02,1.20e-01,
162,6.00e-02,1.20e-01,
163,6.00e-02,1.20e-01,
164,6.00e-02,1.20e-01,
165,6.00e-02,1.20e-01,
166,4.00e-02,1.20e-01,
167,4.00e-02,1.20e-01,
168,4.00e-02,1.20e-01,
169,4.00e-02,1.20e-01,
170,2.00e-02,1.20e-01,
171,2.00e-02,1.20e-01,
172,2.00e-02,1.20e-01,
173,2.00e-02,1.20e-01,
174,4.00e-02,1.20e-01,
175,4.00e-02,1.20e-01,
176,4.00e-02,1.60e-01,
177,4.00e-02,1.60e-01,
178,4.00e-02,1.20e-01,
179,4.00e-02,1.20e-01,
180,4.00e-02,1.20e-01,
181,4.00e-02,1.20e-01,
182,4.00e-02,1.20e-01,
183,4.00e-02,1.20e-01,
184,4.00e-02,1.60e-01,
185,4.00e-02,1.60e-01,
186,4.00e-02,1.20e-01,
187,4.00e-02,1.20e-01,
188,4.00e-02,1.20e-01,
189,4.00e-02,1.20e-01,
190,8.00e-02,1.20e-01,
191,8.00e-02,1.20e-01,
192,1.40e-01,1.20e-01,
193,1.40e-01,1.20e-01,
194,1.00e-01,1.20e-01,
195,1.00e-01,1.20e-01,
196,8.00e-02,1.20e-01,
197,8.00e-02,1.20e-01,
198,8.00e-02,1.20e-01,
199,8.00e-02,1.20e-01,
200,1.00e-01,1.60e-01,
201,1.00e-01,1.60e-01,
202,8.00e-02,1.60e-01,
203,8.00e-02,1.60e-01,
204,6.00e-02,1.20e-01,
205,6.00e-02,1.20e-01,
206,6.00e-02,1.20e-01,
207,6.00e-02,1.20e-01,
208,6.00e-02,1.20e-01,
209,6.00e-02,1.20e-01,
210,4.00e-02,1.60e-01,
211,4.00e-02,1.60e-01,
212,4.00e-02,1.20e-01,
213,4.00e-02,1.20e-01,
214,8.00e-02,1.60e-01,
215,8.00e-02,1.60e-01,
216,8.00e-02,1.20e-01,
217,8.00e-02,1.20e-01,
218,6.00e-02,1.60e-01,
219,6.00e-02,1.60e-01,
220,6.00e-02,1.60e-01,
221,6.00e-02,1.60e-01,
222,6.00e-02,1.20e-01,
223,6.00e-02,1.20e-01,
224,6.00e-02,1.60e-01,
225,6.00e-02,1.60e-01,
226,4.00e-02,1.20e-01,
227,4.00e-02,1.20e-01,
228,4.00e-02,1.60e-01,
229,4.00e-02,1.60e-01,
230,4.00e-02,1.60e-01,
231,4.00e-02,1.60e-01,
232,4.00e-02,1.20e-01,
233,4.00e-02,1.20e-01,
234,4.00e-02,1.60e-01,
235,4.00e-02,1.60e-01,
236,4.00e-02,1.60e-01,
237,4.00e-02,1.60e-01,
238,4.00e-02,1.60e-01,
239,4.00e-02,1.60e-01,
240,4.00e-02,1.20e-01,
241,4.00e-02,1.20e-01,
242,4.00e-02,1.20e-01,
243,4.00e-02,1.20e-01,
244,6.00e-02,1.60e-01,
245,6.00e-02,1.60e-01,
246,4.00e-02,1.20e-01,
247,4.00e-02,1.20e-01,
248,4.00e-02,1.20e-01,
249,4.00e-02,1.20e-01,
250,2.00e-02,1.60e-01,
251,2.00e-02,1.60e-01,
252,4.00e-02,1.60e-01,
253,4.00e-02,1.60e-01,
254,4.00e-02,1.20e-01,
255,4.00e-02,1.20e-01,
256,2.00e-02,1.20e-01,
257,2.00e-02,1.20e-01,
258,4.00e-02,1.20e-01,
259,4.00e-02,1.20e-01,
260,1.60e-01,1.60e-01,
261,1.60e-01,1.60e-01,
262,1.20e-01,1.60e-01,
263,1.20e-01,1.60e-01,
264,8.00e-02,1.60e-01,
265,8.00e-02,1.60e-01,
266,8.00e-02,1.60e-01,
267,8.00e-02,1.60e-01,
268,8.00e-02,1.60e-01,
269,8.00e-02,1.60e-01,
270,8.00e-02,1.20e-01,
271,8.00e-02,1.20e-01,
272,6.00e-02,1.60e-01,
273,6.00e-02,1.60e-01,
274,6.00e-02,1.60e-01,
275,6.00e-02,1.60e-01,
276,4.00e-02,1.60e-01,
277,4.00e-02,1.60e-01,
278,4.00e-02,1.60e-01,
279,4.00e-02,1.60e-01,
280,6.00e-02,1.60e-01,
281,6.00e-02,1.60e-01,
282,6.00e-02,1.60e-01,
283,6.00e-02,1.60e-01,
284,6.00e-02,1.60e-01,
285,6.00e-02,1.60e-01,
286,6.00e-02,1.60e-01,
287,6.00e-02,1.60e-01,
288,6.00e-02,1.20e-01,
289,6.00e-02,1.20e-01,
290,4.00e-02,1.20e-01,
291,4.00e-02,1.20e-01,
292,4.00e-02,1.20e-01,
293,4.00e-02,1.20e-01,
294,2.00e-02,1.60e-01,
295,2.00e-02,1.60e-01,
296,2.00e-02,1.60e-01,
297,2.00e-02,1.60e-01,
298,4.00e-02,1.60e-01,
299,4.00e-02,1.60e-01,
300,4.00e-02,1.60e-01,
301,4.00e-02,1.60e-01,
302,4.00e-02,1.60e-01,
303,4.00e-02,1.60e-01,
304,4.00e-02,1.60e-01,
305,4.00e-02,1.60e-01,
306,2.00e-02,1.60e-01,
307,2.00e-02,1.60e-01,
308,4.00e-02,1.60e-01,
309,4.00e-02,1.60e-01,
310,4.00e-02,1.60e-01,
311,4.00e-02,1.60e-01,
312,4.00e-02,1.60e-01,
313,4.00e-02,1.60e-01,
314,4.00e-02,1.20e-01,
315,4.00e-02,1.20e-01,
316,4.00e-02,1.60e-01,
317,4.00e-02,1.60e-01,
318,4.00e-02,1.60e-01,
319,4.00e-02,1.60e-01,
320,4.00e-02,1.60e-01,
321,4.00e-02,1.60e-01,
322,2.00e-02,1.60e-01,
323,2.00e-02,1.60e-01,
324,6.00e-02,1.60e-01,
325,6.00e-02,1.60e-01,
326,4.00e-02,1.60e-01,
327,4.00e-02,1.60e-01,
328,8.00e-02,1.60e-01,
329,8.00e-02,1.60e-01,
330,6.00e-02,1.60e-01,
331,6.00e-02,1.60e-01,
332,6.00e-02,1.20e-01,
333,6.00e-02,1.20e-01,
334,6.00e-02,1.20e-01,
335,6.00e-02,1.20e-01,
336,4.00e-02,1.60e-01,
337,4.00e-02,1.60e-01,
338,4.00e-02,1.60e-01,
339,4.00e-02,1.60e-01,
340,4.00e-02,1.60e-01,
341,4.00e-02,1.60e-01,
342,4.00e-02,1.20e-01,
343,4.00e-02,1.20e-01,
344,8.00e-02,1.60e-01,
345,8.00e-02,1.60e-01,
346,8.00e-02,1.20e-01,
347,8.00e-02,1.20e-01,
348,8.00e-02,1.60e-01,
349,8.00e-02,1.60e-01,
350,1.00e-01,1.60e-01,
351,1.00e-01,1.60e-01,
352,1.00e-01,1.60e-01,
353,1.00e-01,1.60e-01,
354,1.00e-01,1.60e-01,
355,1.00e-01,1.60e-01,
356,1.00e-01,1.60e-01,
357,1.00e-01,1.60e-01,
358,2.00e-01,1.60e-01,
359,2.00e-01,1.60e-01,
360,4.60e-01,1.60e-01,
361,4.60e-01,1.60e-01,
362,4.80e-01,1.60e-01,
363,4.80e-01,1.60e-01,
364,3.60e-01,1.60e-01,
365,3.60e-01,1.60e-01,
366,2.60e-01,1.60e-01,
367,2.60e-01,1.60e-01,
368,2.20e-01,1.60e-01,
369,2.20e-01,1.60e-01,
370,1.60e-01,1.60e-01,
371,1.60e-01,1.60e-01,
372,1.40e-01,1.60e-01,
373,1.40e-01,1.60e-01,
374,1.80e-01,1.60e-01,
375,1.80e-01,1.60e-01,
376,1.60e-01,1.60e-01,
377,1.60e-01,1.60e-01,
378,2.20e-01,1.60e-01,
379,2.20e-01,1.60e-01,
380,5.00e-01,1.60e-01,
381,5.00e-01,1.60e-01,
382,1.04e+00,1.60e-01,
383,1.04e+00,1.60e-01,
384,1.34e+00,1.60e-01,
385,1.34e+00,1.60e-01,
386,1.42e+00,1.60e-01,
387,1.42e+00,1.60e-01,
388,1.26e+00,1.60e-01,
389,1.26e+00,1.60e-01,
390,9.60e-01,1.60e-01,
391,9.60e-01,1.60e-01,
392,7.00e-01,1.60e-01,
393,7.00e-01,1.60e-01,
394,5.20e-01,1.60e-01,
395,5.20e-01,1.60e-01,
396,4.00e-01,1.60e-01,
397,4.00e-01,1.60e-01,
398,3.00e-01,1.60e-01,
399,3.00e-01,1.60e-01,
400,2.40e-01,1.60e-01,
401,2.40e-01,1.60e-01,
402,2.40e-01,1.60e-01,
403,2.40e-01,1.60e-01,
404,1.80e-01,1.60e-01,
405,1.80e-01,1.60e-01,
406,1.60e-01,1.60e-01,
407,1.60e-01,1.60e-01,
408,1.60e-01,1.60e-01,
409,1.60e-01,1.60e-01,
410,2.20e-01,1.60e-01,
411,2.20e-01,1.60e-01,
412,4.20e-01,1.60e-01,
413,4.20e-01,1.60e-01,
414,1.24e+00,1.20e-01,
415,1.24e+00,1.20e-01,
416,2.18e+00,1.60e-01,
417,2.18e+00,1.60e-01,
418,2.86e+00,1.60e-01,
419,2.86e+00,1.60e-01,
420,2.64e+00,1.60e-01,
421,2.64e+00,1.60e-01,
422,2.06e+00,1.60e-01,
423,2.06e+00,1.60e-01,
424,1.50e+00,1.60e-01,
425,1.50e+00,1.60e-01,
426,1.08e+00,1.60e-01,
427,1.08e+00,1.60e-01,
428,8.00e-01,1.60e-01,
429,8.00e-01,1.60e-01,
430,5.80e-01,1.60e-01,
431,5.80e-01,1.60e-01,
432,4.20e-01,1.60e-01,
433,4.20e-01,1.60e-01,
434,3.40e-01,1.60e-01,
435,3.40e-01,1.60e-01,
436,2.60e-01,1.60e-01,
437,2.60e-01,1.60e-01,
438,2.00e-01,1.60e-01,
439,2.00e-01,1.60e-01,
440,1.40e-01,1.60e-01,
441,1.40e-01,1.60e-01,
442,1.20e-01,1.60e-01,
443,1.20e-01,1.60e-01,
444,1.00e-01,1.60e-01,
445,1.00e-01,1.60e-01,
446,1.00e-01,1.60e-01,
447,1.00e-01,1.60e-01,
448,8.00e-02,1.60e-01,
449,8.00e-02,1.60e-01,
450,8.00e-02,1.60e-01,
451,8.00e-02,1.60e-01,
452,8.00e-02,1.60e-01,
453,8.00e-02,1.60e-01,
454,6.00e-02,1.60e-01,
455,6.00e-02,1.60e-01,
456,4.00e-02,1.60e-01,
457,4.00e-02,1.60e-01,
458,4.00e-02,1.60e-01,
459,4.00e-02,1.60e-01,
460,2.00e-02,1.60e-01,
461,2.00e-02,1.60e-01,
462,2.00e-02,1.60e-01,
463,2.00e-02,1.60e-01,
464,4.00e-02,1.60e-01,
465,4.00e-02,1.60e-01,
466,4.00e-02,1.60e-01,
467,4.00e-02,1.60e-01,
468,4.00e-02,1.60e-01,
469,4.00e-02,1.60e-01,
470,2.00e-02,1.60e-01,
471,2.00e-02,1.60e-01,
472,2.00e-02,1.60e-01,
473,2.00e-02,1.60e-01,
474,2.00e-02,1.60e-01,
475,2.00e-02,1.60e-01,
476,2.00e-02,1.60e-01,
477,2.00e-02,1.60e-01,
478,2.00e-02,1.60e-01,
479,2.00e-02,1.60e-01,
480,2.00e-02,1.60e-01,
481,2.00e-02,1.60e-01,
482,4.00e-02,1.60e-01,
483,4.00e-02,1.60e-01,
484,6.00e-02,1.60e-01,
485,6.00e-02,1.60e-01,
486,6.00e-02,1.60e-01,
487,6.00e-02,1.60e-01,
488,6.00e-02,1.60e-01,
489,6.00e-02,1.60e-01,
490,6.00e-02,1.60e-01,
491,6.00e-02,1.60e-01,
492,6.00e-02,1.60e-01,
493,6.00e-02,1.60e-01,
494,6.00e-02,1.60e-01,
495,6.00e-02,1.60e-01,
496,4.00e-02,1.60e-01,
497,4.00e-02,1.60e-01,
498,4.00e-02,1.60e-01,
499,4.00e-02,1.60e-01,
500,4.00e-02,1.60e-01,
501,4.00e-02,1.60e-01,
502,4.00e-02,1.60e-01,
503,4.00e-02,1.60e-01,
504,4.00e-02,1.60e-01,
505,4.00e-02,1.60e-01,
506,4.00e-02,1.60e-01,
507,4.00e-02,1.60e-01,
508,4.00e-02,1.60e-01,
509,4.00e-02,1.60e-01,
510,4.00e-02,1.60e-01,
511,4.00e-02,1.60e-01,
512,2.00e-02,1.60e-01,
513,2.00e-02,1.60e-01,
514,2.00e-02,1.60e-01,
515,2.00e-02,1.60e-01,
516,8.00e-02,1.60e-01,
517,8.00e-02,1.60e-01,
518,1.00e-01,1.60e-01,
519,1.00e-01,1.60e-01,
520,1.40e-01,1.60e-01,
521,1.40e-01,1.60e-01,
522,1.00e-01,1.60e-01,
523,1.00e-01,1.60e-01,
524,8.00e-02,1.60e-01,
525,8.00e-02,1.60e-01,
526,6.00e-02,1.60e-01,
527,6.00e-02,1.60e-01,
528,8.00e-02,1.60e-01,
529,8.00e-02,1.60e-01,
530,6.00e-02,2.00e-01,
531,6.00e-02,2.00e-01,
532,6.00e-02,1.60e-01,
533,6.00e-02,1.60e-01,
534,6.00e-02,1.60e-01,
535,6.00e-02,1.60e-01,
536,4.00e-02,1.60e-01,
537,4.00e-02,1.60e-01,
538,4.00e-02,1.20e-01,
539,4.00e-02,1.20e-01,
540,6.00e-02,1.60e-01,
541,6.00e-02,1.60e-01,
542,4.00e-02,1.60e-01,
543,4.00e-02,1.60e-01,
544,6.00e-02,1.60e-01,
545,6.00e-02,1.60e-01,
546,6.00e-02,1.60e-01,
547,6.00e-02,1.60e-01,
548,4.00e-02,1.60e-01,
549,4.00e-02,1.60e-01,
550,6.00e-02,1.60e-01,
551,6.00e-02,1.60e-01,
552,6.00e-02,1.60e-01,
553,6.00e-02,1.60e-01,
554,6.00e-02,1.60e-01,
555,6.00e-02,1.60e-01,
556,4.00e-02,1.60e-01,
557,4.00e-02,1.60e-01,
558,1.20e-01,1.60e-01,
559,1.20e-01,1.60e-01,
560,8.00e-02,1.60e-01,
561,8.00e-02,1.60e-01,
562,6.00e-02,1.60e-01,
563,6.00e-02,1.60e-01,
564,1.00e-01,1.60e-01,
565,1.00e-01,1.60e-01,
566,6.00e-02,1.60e-01,
567,6.00e-02,1.60e-01,
568,6.00e-02,1.60e-01,
569,6.00e-02,1.60e-01,
570,8.00e-02,1.60e-01,
571,8.00e-02,1.60e-01,
572,1.00e-01,1.60e-01,
573,1.00e-01,1.60e-01,
574,8.00e-02,1.60e-01,
575,8.00e-02,1.60e-01,
576,8.00e-02,1.60e-01,
577,8.00e-02,1.60e-01,
578,1.00e-01,1.60e-01,
579,1.00e-01,1.60e-01,
580,6.00e-02,1.60e-01,
581,6.00e-02,1.60e-01,
582,6.00e-02,1.60e-01,
583,6.00e-02,1.60e-01,
584,4.00e-02,1.60e-01,
585,4.00e-02,1.60e-01,
586,6.00e-02,1.60e-01,
587,6.00e-02,1.60e-01,
588,6.00e-02,1.60e-01,
589,6.00e-02,1.60e-01,
590,6.00e-02,1.60e-01,
591,6.00e-02,1.60e-01,
592,4.00e-02,1.60e-01,
593,4.00e-02,1.60e-01,
594,4.00e-02,1.60e-01,
595,4.00e-02,1.60e-01,
596,4.00e-02,1.60e-01,
597,4.00e-02,1.60e-01,
598,4.00e-02,1.60e-01,
599,4.00e-02,1.60e-01,
600,4.00e-02,1.60e-01,
601,4.00e-02,1.60e-01,
602,4.00e-02,1.60e-01,
603,4.00e-02,1.60e-01,
604,4.00e-02,1.60e-01,
605,4.00e-02,1.60e-01,
606,4.00e-02,1.60e-01,
607,4.00e-02,1.60e-01,
608,4.00e-02,1.60e-01,
609,4.00e-02,1.60e-01,
610,4.00e-02,1.60e-01,
611,4.00e-02,1.60e-01,
612,1.20e-01,1.60e-01,
613,1.20e-01,1.60e-01,
614,1.20e-01,1.60e-01,
615,1.20e-01,1.60e-01,
616,8.00e-02,1.60e-01,
617,8.00e-02,1.60e-01,
618,6.00e-02,1.60e-01,
619,6.00e-02,1.60e-01,
620,4.00e-02,1.60e-01,
621,4.00e-02,1.60e-01,
622,8.00e-02,1.60e-01,
623,8.00e-02,1.60e-01,
624,6.00e-02,1.60e-01,
625,6.00e-02,1.60e-01,
626,4.00e-02,1.60e-01,
627,4.00e-02,1.60e-01,
628,6.00e-02,1.60e-01,
629,6.00e-02,1.60e-01,
630,6.00e-02,1.60e-01,
631,6.00e-02,1.60e-01,
632,6.00e-02,1.60e-01,
633,6.00e-02,1.60e-01,
634,6.00e-02,1.60e-01,
635,6.00e-02,1.60e-01,
636,4.00e-02,1.60e-01,
637,4.00e-02,1.60e-01,
638,4.00e-02,1.60e-01,
639,4.00e-02,1.60e-01,
640,4.00e-02,1.60e-01,
641,4.00e-02,1.60e-01,
642,4.00e-02,1.60e-01,
643,4.00e-02,1.60e-01,
644,6.00e-02,1.60e-01,
645,6.00e-02,1.60e-01,
646,6.00e-02,1.60e-01,
647,6.00e-02,1.60e-01,
648,4.00e-02,1.60e-01,
649,4.00e-02,1.60e-01,
650,4.00e-02,1.60e-01,
651,4.00e-02,1.60e-01,
652,2.00e-02,1.60e-01,
653,2.00e-02,1.60e-01,
654,4.00e-02,1.60e-01,
655,4.00e-02,1.60e-01,
656,2.00e-02,1.60e-01,
657,2.00e-02,1.60e-01,
658,2.00e-02,1.60e-01,
659,2.00e-02,1.60e-01,
660,4.00e-02,1.60e-01,
661,4.00e-02,1.60e-01,
662,1.00e-01,1.60e-01,
663,1.00e-01,1.60e-01,
664,8.00e-02,1.60e-01,
665,8.00e-02,1.60e-01,
666,8.00e-02,1.60e-01,
667,8.00e-02,1.60e-01,
668,6.00e-02,1.60e-01,
669,6.00e-02,1.60e-01,
670,8.00e-02,1.60e-01,
671,8.00e-02,1.60e-01,
672,8.00e-02,1.60e-01,
673,8.00e-02,1.60e-01,
674,8.00e-02,1.60e-01,
675,8.00e-02,1.60e-01,
676,1.00e-01,1.60e-01,
677,1.00e-01,1.60e-01,
678,8.00e-02,1.60e-01,
679,8.00e-02,1.60e-01,
680,6.00e-02,1.60e-01,
681,6.00e-02,1.60e-01,
682,4.00e-02,1.60e-01,
683,4.00e-02,1.60e-01,
684,8.00e-02,1.60e-01,
685,8.00e-02,1.60e-01,
686,8.00e-02,1.60e-01,
687,8.00e-02,1.60e-01,
688,6.00e-02,2.00e-01,
689,6.00e-02,2.00e-01,
690,6.00e-02,1.60e-01,
691,6.00e-02,1.60e-01,
692,6.00e-02,1.60e-01,
693,6.00e-02,1.60e-01,
694,6.00e-02,1.60e-01,
695,6.00e-02,1.60e-01,
696,4.00e-02,1.60e-01,
697,4.00e-02,1.60e-01,
698,6.00e-02,1.60e-01,
699,6.00e-02,1.60e-01,
700,4.00e-02,1.60e-01,
701,4.00e-02,1.60e-01,
702,4.00e-02,1.60e-01,
703,4.00e-02,1.60e-01,
704,8.00e-02,1.60e-01,
705,8.00e-02,1.60e-01,
706,8.00e-02,1.60e-01,
707,8.00e-02,1.60e-01,
708,6.00e-02,1.60e-01,
709,6.00e-02,1.60e-01,
710,6.00e-02,1.60e-01,
711,6.00e-02,1.60e-01,
712,1.00e-01,1.60e-01,
713,1.00e-01,1.60e-01,
714,6.00e-02,1.60e-01,
715,6.00e-02,1.60e-01,
716,6.00e-02,1.60e-01,
717,6.00e-02,1.60e-01,
718,4.00e-02,1.20e-01,
719,4.00e-02,1.20e-01,
720,4.00e-02,1.60e-01,
721,4.00e-02,1.60e-01,
722,4.00e-02,1.60e-01,
723,4.00e-02,1.60e-01,
724,4.00e-02,1.60e-01,
725,4.00e-02,1.60e-01,
726,4.00e-02,1.60e-01,
727,4.00e-02,1.60e-01,
728,4.00e-02,1.60e-01,
729,4.00e-02,1.60e-01,
730,4.00e-02,1.60e-01,
731,4.00e-02,1.60e-01,
732,4.00e-02,1.60e-01,
733,4.00e-02,1.60e-01,
734,6.00e-02,1.60e-01,
735,6.00e-02,1.60e-01,
736,4.00e-02,1.60e-01,
737,4.00e-02,1.60e-01,
738,4.00e-02,1.60e-01,
739,4.00e-02,1.60e-01,
740,4.00e-02,1.60e-01,
741,4.00e-02,1.60e-01,
742,4.00e-02,1.60e-01,
743,4.00e-02,1.60e-01,
744,2.00e-02,1.60e-01,
745,2.00e-02,1.60e-01,
746,2.00e-02,1.60e-01,
747,2.00e-02,1.60e-01,
748,4.00e-02,1.60e-01,
749,4.00e-02,1.60e-01,
750,2.00e-02,1.60e-01,
751,2.00e-02,1.60e-01,
752,2.00e-02,1.60e-01,
753,2.00e-02,1.60e-01,
754,2.00e-02,1.60e-01,
755,2.00e-02,1.60e-01,
756,2.00e-02,1.60e-01,
757,2.00e-02,1.60e-01,
758,2.00e-02,1.60e-01,
759,2.00e-02,1.60e-01,
760,2.00e-02,1.60e-01,
761,2.00e-02,1.60e-01,
762,4.00e-02,1.60e-01,
763,4.00e-02,1.60e-01,
764,4.00e-02,1.60e-01,
765,4.00e-02,1.60e-01,
766,4.00e-02,1.60e-01,
767,4.00e-02,1.60e-01,
768,2.00e-02,1.60e-01,
769,2.00e-02,1.60e-01,
770,2.00e-02,1.60e-01,
771,2.00e-02,1.60e-01,
772,1.60e-01,1.60e-01,
773,1.60e-01,1.60e-01,
774,1.20e-01,1.60e-01,
775,1.20e-01,1.60e-01,
776,8.00e-02,1.60e-01,
777,8.00e-02,1.60e-01,
778,8.00e-02,1.60e-01,
779,8.00e-02,1.60e-01,
780,6.00e-02,1.60e-01,
781,6.00e-02,1.60e-01,
782,6.00e-02,1.60e-01,
783,6.00e-02,1.60e-01,
784,4.00e-02,1.60e-01,
785,4.00e-02,1.60e-01,
786,6.00e-02,1.60e-01,
787,6.00e-02,1.60e-01,
788,4.00e-02,1.60e-01,
789,4.00e-02,1.60e-01,
790,4.00e-02,1.60e-01,
791,4.00e-02,1.60e-01,
792,4.00e-02,1.60e-01,
793,4.00e-02,1.60e-01,
794,4.00e-02,1.60e-01,
795,4.00e-02,1.60e-01,
796,2.00e-02,1.60e-01,
797,2.00e-02,1.60e-01,
798,4.00e-02,1.60e-01,
799,4.00e-02,1.60e-01,
800,1.40e-01,1.60e-01,
801,1.40e-01,1.60e-01,
802,1.00e-01,1.60e-01,
803,1.00e-01,1.60e-01,
804,8.00e-02,1.60e-01,
805,8.00e-02,1.60e-01,
806,8.00e-02,1.60e-01,
807,8.00e-02,1.60e-01,
808,6.00e-02,1.60e-01,
809,6.00e-02,1.60e-01,
810,6.00e-02,1.60e-01,
811,6.00e-02,1.60e-01,
812,6.00e-02,1.60e-01,
813,6.00e-02,1.60e-01,
814,4.00e-02,1.60e-01,
815,4.00e-02,1.60e-01,
816,4.00e-02,1.60e-01,
817,4.00e-02,1.60e-01,
818,2.00e-02,1.60e-01,
819,2.00e-02,1.60e-01,
820,2.00e-02,1.60e-01,
821,2.00e-02,1.60e-01,
822,2.00e-02,1.60e-01,
823,2.00e-02,1.60e-01,
824,4.00e-02,1.60e-01,
825,4.00e-02,1.60e-01,
826,4.00e-02,1.60e-01,
827,4.00e-02,1.60e-01,
828,4.00e-02,1.60e-01,
829,4.00e-02,1.60e-01,
830,4.00e-02,1.60e-01,
831,4.00e-02,1.60e-01,
832,4.00e-02,1.60e-01,
833,4.00e-02,1.60e-01,
834,4.00e-02,1.60e-01,
835,4.00e-02,1.60e-01,
836,2.00e-02,1.60e-01,
837,2.00e-02,1.60e-01,
838,4.00e-02,1.60e-01,
839,4.00e-02,1.60e-01,
840,4.00e-02,1.60e-01,
841,4.00e-02,1.60e-01,
842,4.00e-02,1.60e-01,
843,4.00e-02,1.60e-01,
844,4.00e-02,1.60e-01,
845,4.00e-02,1.60e-01,
846,4.00e-02,1.60e-01,
847,4.00e-02,1.60e-01,
848,2.00e-02,1.60e-01,
849,2.00e-02,1.60e-01,
850,2.00e-02,1.60e-01,
851,2.00e-02,1.60e-01,
852,2.00e-02,2.00e-01,
853,2.00e-02,2.00e-01,
854,1.00e-01,1.20e-01,
855,1.00e-01,1.20e-01,
856,8.00e-02,1.60e-01,
857,8.00e-02,1.60e-01,
858,6.00e-02,1.60e-01,
859,6.00e-02,1.60e-01,
860,4.00e-02,1.60e-01,
861,4.00e-02,1.60e-01,
862,4.00e-02,1.60e-01,
863,4.00e-02,1.60e-01,
864,2.00e-02,1.60e-01,
865,2.00e-02,1.60e-01,
866,2.00e-02,1.60e-01,
867,2.00e-02,1.60e-01,
868,2.00e-02,1.60e-01,
869,2.00e-02,1.60e-01,
870,4.00e-02,1.60e-01,
